[
  {
    "colour": "#F00",
    "tiles": [
      { "type": "full", "x": -1, "y": 0 },
      { "type": "full", "x": 0, "y": 0 },
      { "type": "full", "x": 1, "y": 0 },
      { "type": "full", "x": 1, "y": 1 }
    ]
  },
  {
    "colour": "#0F0",
    "tiles": [
      { "type": "full", "x": -1, "y": 0 },
      { "type": "full", "x": 0, "y": 0 },
      { "type": "full", "x": 1, "y": 0 },
      { "type": "full", "x": 0, "y": 1 }
    ]
  },
  {
    "colour": "#00F",
    "tiles": [
      { "type": "full", "x": 0, "y": 0 },
      { "type": "full", "x": 1, "y": 0 },
      { "type": "full", "x": 0, "y": 1 },
      { "type": "full", "x": 1, "y": 1 }
    ]
  },
  {
    "colour": "#FF0",
    "tiles": [
      { "type": "full", "x": 0, "y": 0 },
      { "type": "full", "x": 1, "y": 0 }
    ]
  },
  {
    "colour": "#F0F",
    "tiles": [
      { "type": "slope", "x": 0, "y": 0 }
    ]
  }
]
